<?xml version="1.0" encoding="utf-8"?>
<!-- Generator: Adobe Illustrator 16.0.0, SVG Export Plug-In . SVG Version: 6.00 Build 0)  -->
<!DOCTYPE svg PUBLIC "-//W3C//DTD SVG 1.1//EN" "http://www.w3.org/Graphics/SVG/1.1/DTD/svg11.dtd">
<svg version="1.1" id="Layer_1" xmlns="http://www.w3.org/2000/svg" xmlns:xlink="http://www.w3.org/1999/xlink" x="0px" y="0px"
	 width="146.333px" height="93.167px" viewBox="0 0 146.333 93.167" enable-background="new 0 0 146.333 93.167"
	 xml:space="preserve">
<rect display="none" fill="#969696" width="146.333" height="93.167"/>
<rect y="18.667" display="none" fill="#FFFFFF" width="146.333" height="18.667"/>
<rect y="37.333" fill="#969696" width="146.333" height="18.667"/>
<rect y="55.833" display="none" fill="#FFFFFF" width="146.333" height="18.667"/>
<rect y="74.5" fill="#969696" width="146.333" height="18.666"/>
<rect fill="#969696" width="146.333" height="18.667"/>
</svg>
